[gd_scene load_steps=3 format=2]

[ext_resource path="res://scenes/GameOverDetector.gd" type="Script" id=1]

[sub_resource type="RectangleShape2D" id=1]
extents = Vector2( 100, 1080 )

[node name="GameOverDetector" type="Area2D"]
position = Vector2( 7713, 540 )
script = ExtResource( 1 )

[node name="CollisionShape2D" type="CollisionShape2D" parent="."]
shape = SubResource( 1 )
