[gd_scene load_steps=6 format=2]

[ext_resource path="res://assets/screenshot.png" type="Texture" id=1]
[ext_resource path="res://scenes/ui/BigLabel.tscn" type="PackedScene" id=2]
[ext_resource path="res://theme.tres" type="Theme" id=3]
[ext_resource path="res://scenes/QuitButton.tscn" type="PackedScene" id=4]
[ext_resource path="res://scenes/ui/StartButton.tscn" type="PackedScene" id=5]

[node name="MainMenu" type="Control"]
anchor_right = 1.0
anchor_bottom = 1.0
theme = ExtResource( 3 )

[node name="TextureRect" type="TextureRect" parent="."]
margin_right = 40.0
margin_bottom = 40.0
texture = ExtResource( 1 )

[node name="BigLabel" parent="." instance=ExtResource( 2 )]

[node name="StartButton" parent="." instance=ExtResource( 5 )]
level = "res://scenes/Main.tscn"

[node name="QuitButton" parent="." instance=ExtResource( 4 )]
